﻿{
	"sProcessing": "Procesando...",
	"sLengthMenu": "Mostrar _MENU_ registros",
	"sZeroRecords": "No se encontraron resultados",
	"sInfo": "Mostrando desde _START_ hasta _END_ de _TOTAL_ registros",
	"sInfoEmpty": "Mostrando desde 0 hasta 0 de 0 registros",
	"sInfoFiltered": "",
	"sInfoPostFix": "",
	"sSearch": "Buscar:",
	"sUrl": "",
	"oPaginate": {
		"sFirst":    "<< Primero",
		"sPrevious": "< Anterior",
		"sNext":     "Siguiente >",
		"sLast":     "Ultimo >>"
	}
}